{
    "/js/index.js": "/js/index.js?id=022efcd25d0977157eb1",
    "/css/index.css": "/css/index.css?id=0dde8d33423df83900bd",
    "/js/manifest.js": "/js/manifest.js?id=844cdbfe9e6b6b56ae8f",
    "/js/vendor.js": "/js/vendor.js?id=d1a3fe8172ff5179ad82"
}
