{
  "name": "Main_Website",
	"dockerComposeFile": "../docker-compose.yml",
	"service": "dev",
	"workspaceFolder": "/app",
  "extensions": [
    "nucllear.vscode-extension-auto-import",
    "streetsidesoftware.code-spell-checker",
    "anseki.vscode-color",
    "dbaeumer.vscode-eslint",
    "eamodio.gitlens",
    "sysoev.language-stylus",
    "shardulm94.trailing-spaces",
    "octref.vetur",
    "bmewburn.vscode-intelephense-client",
    "ryannaddy.laravel-artisan",
    "onecentlin.laravel-blade"
  ],
  "appPort": [
  ],
  "postCreateCommand": "git config --global user.name 'Jazy Llerena' && git config --global user.email 'jazy@jazyserver.com'"
}
